id;uploaded_file_path
1;Inlet Riel
2;Clothing XML
3;overriding Concrete
4;Refined Metal Cheese didactic
5;Ergonomic lime
6;SMTP
7;Investor
8;innovate Paraguay
9;heuristic
10;Lebanon Central Personal Loan Account
